<svg width="60" height="48" viewBox="0 0 60 48" fill="none" xmlns="http://www.w3.org/2000/svg">
<g opacity="0.5">
<path d="M19.5804 22.4471C21.9114 23.4824 23.7296 25.0353 25.035 27.1059C26.3403 29.1765 26.993 31.6235 26.993 34.4471C26.993 38.4941 25.7343 41.7882 23.2168 44.3294C20.6993 46.7765 17.4825 48 13.5664 48C9.65035 48 6.38695 46.7294 3.77622 44.1882C1.25874 41.6471 0 38.4 0 34.4471C0 32.5647 0.2331 30.6824 0.699301 28.8C1.1655 26.9176 2.19114 24.0941 3.77622 20.3294L11.8881 0H25.7343L19.5804 22.4471ZM52.5874 22.4471C54.9184 23.4824 56.7366 25.0353 58.042 27.1059C59.3473 29.1765 60 31.6235 60 34.4471C60 38.4941 58.7413 41.7882 56.2238 44.3294C53.7063 46.7765 50.4895 48 46.5734 48C42.6573 48 39.3939 46.7294 36.7832 44.1882C34.2657 41.6471 33.007 38.4 33.007 34.4471C33.007 32.5647 33.2401 30.6824 33.7063 28.8C34.1725 26.9176 35.1981 24.0941 36.7832 20.3294L44.8951 0H58.7413L52.5874 22.4471Z" fill="#D3BC8D"/>
</g>
</svg>
